Introduction to ivs
…
To answer this question, we are going to need to create a sequential
vector of months that span the entire range of intervals. This starts at
the smallest start and goes to the largest
end. Because the end is half-open, there won’t
be any hits for that month, so we won’t include it.

bounds <- range(enrollments$active)
lower <- iv_start(bounds[[1]])
upper <- iv_end(bounds[[2]]) - 1L

months <- tibble(month = seq(lower, upper, by = 1))

months
#> # A tibble: 27 × 1
#>    month       
#>    <ymd<month>>
#>  1 2017-01     
#>  2 2017-02     
#>  3 2017-03     
#>  4 2017-04     
#>  5 2017-05     
#>  6 2017-06     
#>  7 2017-07     
#>  8 2017-08     
#>  9 2017-09     
#> 10 2017-10     
#> # … with 17 more rows
…
